<svg xmlns="http://www.w3.org/2000/svg" width="16" height="16" viewBox="0 0 16 16">
  <g id="Group_992" data-name="Group 992" transform="translate(-844 -1085)">
    <rect id="Focus_State" data-name="Focus State" width="16" height="16" rx="2" transform="translate(844 1085)" fill="#1ac424"/>
    <path id="Check" d="M0,4V0H2V2H8V4Z" transform="translate(848 1093.657) rotate(-45)" fill="#fff"/>
  </g>
</svg>
