<?xml version="1.0" encoding="iso-8859-1" ?>
<!-- Generator: Adobe Illustrator 19.0.0, SVG Export Plug-In . SVG Version: 6.00 Build 0)  -->
<svg height="14pt" width="14pt" xmlns="http://www.w3.org/2000/svg" xmlns:xlink="http://www.w3.org/1999/xlink" x="0px" y="0px" viewBox="0 0 492 492" style="enable-background:new 0 0 492 492;" xml:space="preserve">
	<path d="m429.0625 0h-346.125c-45.804688 0-82.9375 37.132812-82.9375 82.9375v346.125c0 45.804688 37.132812 82.9375 82.9375 82.9375h346.125c45.804688 0 82.9375-37.132812 82.9375-82.9375v-346.125c0-45.804688-37.132812-82.9375-82.9375-82.9375zm0 0" fill="#ff0000" />
	<path d="m286.507812 0h-203.570312c-45.804688 0-82.9375 37.132812-82.9375 82.9375v346.125c0 45.804688 37.132812 82.9375 82.9375 82.9375h106.796875c-84.058594-100.804688-52.410156-287.089844 11.078125-359.761719 61.308594-70.171875 80.023438-126.339843 85.695312-152.238281zm0 0" fill="#ff0000" />
	<path xmlns="http://www.w3.org/2000/svg" d="M 361.929688 264.828125 L 150.070312 264.828125 C 145.195312 264.828125 141.242188 260.875 141.242188 256 C 141.242188 251.125 145.195312 247.171875 150.070312 247.171875 L 361.929688 247.171875 C 366.804688 247.171875 370.757812 251.125 370.757812 256 C 370.757812 260.875 366.804688 264.828125 361.929688 264.828125 Z M 361.929688 264.828125 " style="stroke: #fff; fill-rule:nonzero; fill:#fff; stroke-width: 50px;"/>/>
</svg>